[gd_scene load_steps=5 format=2]

[ext_resource path="res://Pathfinding/Pathfinder.gd" type="Script" id=1]
[ext_resource path="res://Map/LevelTileset.tres" type="TileSet" id=2]
[ext_resource path="res://Player/Player.tscn" type="PackedScene" id=3]
[ext_resource path="res://Levels/Level.tscn" type="PackedScene" id=4]

[node name="BaseLevel" instance=ExtResource( 4 )]

[node name="Goal" type="Position2D" parent="." index="0"]

[node name="FinishLine" type="ReferenceRect" parent="." index="1"]
margin_right = 16.0
margin_bottom = 16.0

[node name="TileMap" type="TileMap" parent="." index="2"]
tile_set = ExtResource( 2 )
cell_size = Vector2( 16, 16 )
format = 1
tile_data = PoolIntArray( 0, 1, 131075 )
script = ExtResource( 1 )

[node name="Sort" type="YSort" parent="." index="3"]

[node name="Enemies" type="Node" parent="Sort" index="0"]

[node name="Player" parent="Sort" index="1" instance=ExtResource( 3 )]

[connection signal="moved" from="Sort/Player" to="." method="_on_Player_moved"]
